{
  "titleTextMapHash": 376110399,
  
  "id": 72102,
  "ICLLDPJFIMA": 0,
  "NCLEJIILEGL": 0,
  "type": "WQ",
  "COHOCGBOCFH": "MAINQUEST_TAG_NONE",
  "PIMPBFFBLNL": "PLAY_MODE_ALL",
  "NFEGGFJPMJI": "",
  "desc": "",
  "_luaPath": "Actor/Quest/WQ72102",
  "recommendLevel": 0,
  "repeatable": false,
  "PEOHODAKLNO": [],
  "FEHAEKNGFBP": false,
  "rewardIdList": [],
  "showType": "QUEST_HIDDEN",
  "HKNKBANBJPP": [],
  "LACEJNKJBCG": [],
  "OFCKAEDMIFA": 0,
  "chapterId": 0,
  "taskId": 0,
  "FCPJIFCLDFI": false,
  "activityId": 0,
  "subQuests": [
    {
      "HDBBFJKKGOM": false,
      "subId": 7210201,
      "mainId": 72102,
      "order": 1,
      "subIdSet": 0,
      "isMpBlock": false,
      "desc": "",
      "LBPMFJBNGGG": "",
      "AGIIGKJNLIG": "",
      "showType": "QUEST_HIDDEN",
      "ACEKFDIJKGJ": "BAN_GROUP_INVALID",
      "finishCond": [
        {
          "type": "QUEST_CONTENT_LUA_NOTIFY",
          "param": [0, 0],
          "count": 1
        }
      ],
      "failCond": [],
      "guide": {
        "type": "QUEST_GUIDE_NONE",
        "autoGuide": "QUEST_GUIDE_AUTO_NONE",
        "param": [],
        "guideScene": 0,
        "guideStyle": "QUEST_GUIDE_STYLE_NONE",
        "guideLayer": "QUEST_GUIDE_LAYER_NONE"
      },
      "showGuide": "QUEST_GUIDE_ITEM_ENABLE",
      "LPNIEFEBKGK": {
        "type": "QUEST_GUIDE_HINT_NONE",
        "param1": ""
      },
      "NKDLEHHCADL": false,
      "HKLAHKJAHJC": false,
      "failParentShow": "QUEST_SHOW",
      "EFIFPBKMMAA": true,
      "finishExec": [],
      "failExec": [],
      "LKPOHELCGKA": "",
      "PBFCIDGHHHE": ""
    },
    {
      "HDBBFJKKGOM": false,
      "subId": 7210202,
      "mainId": 72102,
      "order": 2,
      "subIdSet": 0,
      "isMpBlock": false,
      "desc": "",
      "LBPMFJBNGGG": "",
      "AGIIGKJNLIG": "",
      "showType": "QUEST_HIDDEN",
      "ACEKFDIJKGJ": "BAN_GROUP_INVALID",
      "finishCond": [
        {
          "type": "QUEST_CONTENT_LUA_NOTIFY",
          "param": [0, 0],
          "count": 1
        }
      ],
      "failCond": [],
      "guide": {
        "type": "QUEST_GUIDE_LOCATION",
        "autoGuide": "QUEST_GUIDE_AUTO_ENABLE",
        "param": ["Q3_72102_0", "130"],
        "guideScene": 3,
        "guideStyle": "QUEST_GUIDE_STYLE_TARGET",
        "guideLayer": "QUEST_GUIDE_LAYER_SCENE"
      },
      "showGuide": "QUEST_GUIDE_ITEM_ENABLE",
      "LPNIEFEBKGK": {
        "type": "QUEST_GUIDE_HINT_NONE",
        "param1": ""
      },
      "NKDLEHHCADL": false,
      "HKLAHKJAHJC": false,
      "failParentShow": "QUEST_SHOW",
      "EFIFPBKMMAA": true,
      "finishExec": [],
      "failExec": [],
      "LKPOHELCGKA": "",
      "PBFCIDGHHHE": ""
    },
    {
      "HDBBFJKKGOM": false,
      "subId": 7210203,
      "mainId": 72102,
      "order": 3,
      "subIdSet": 0,
      "isMpBlock": false,
      "desc": "",
      "LBPMFJBNGGG": "",
      "AGIIGKJNLIG": "",
      "showType": "QUEST_HIDDEN",
      "ACEKFDIJKGJ": "BAN_GROUP_INVALID",
      "finishCond": [
        {
          "type": "QUEST_CONTENT_LUA_NOTIFY",
          "param": [0, 0],
          "count": 1
        }
      ],
      "failCond": [],
      "guide": {
        "type": "QUEST_GUIDE_LOCATION",
        "autoGuide": "QUEST_GUIDE_AUTO_ENABLE",
        "param": ["Q3_72102_1"],
        "guideScene": 3,
        "guideStyle": "QUEST_GUIDE_STYLE_TARGET",
        "guideLayer": "QUEST_GUIDE_LAYER_SCENE"
      },
      "showGuide": "QUEST_GUIDE_ITEM_ENABLE",
      "LPNIEFEBKGK": {
        "type": "QUEST_GUIDE_HINT_NONE",
        "param1": ""
      },
      "NKDLEHHCADL": true,
      "HKLAHKJAHJC": false,
      "failParentShow": "QUEST_SHOW",
      "EFIFPBKMMAA": true,
      "finishExec": [],
      "failExec": [],
      "LKPOHELCGKA": "",
      "PBFCIDGHHHE": ""
    },
    {
      "HDBBFJKKGOM": false,
      "subId": 7210204,
      "mainId": 72102,
      "order": 4,
      "subIdSet": 0,
      "isMpBlock": false,
      "desc": "",
      "LBPMFJBNGGG": "",
      "AGIIGKJNLIG": "",
      "showType": "QUEST_HIDDEN",
      "ACEKFDIJKGJ": "BAN_GROUP_INVALID",
      "finishCond": [
        {
          "type": "QUEST_CONTENT_LUA_NOTIFY",
          "param": [0, 0],
          "count": 1
        },
        {
          "type": "QUEST_CONTENT_ADD_QUEST_PROGRESS",
          "param": [7210204, 0],
          "count": 1
        }
      ],
      "failCond": [],
      "guide": {
        "type": "QUEST_GUIDE_NONE",
        "autoGuide": "QUEST_GUIDE_AUTO_NONE",
        "param": [],
        "guideScene": 0,
        "guideStyle": "QUEST_GUIDE_STYLE_NONE",
        "guideLayer": "QUEST_GUIDE_LAYER_NONE"
      },
      "showGuide": "QUEST_GUIDE_ITEM_ENABLE",
      "LPNIEFEBKGK": {
        "type": "QUEST_GUIDE_HINT_NONE",
        "param1": ""
      },
      "NKDLEHHCADL": true,
      "HKLAHKJAHJC": false,
      "failParentShow": "QUEST_SHOW",
      "EFIFPBKMMAA": true,
      "finishExec": [],
      "failExec": [],
      "LKPOHELCGKA": "",
      "PBFCIDGHHHE": ""
    },
    {
      "HDBBFJKKGOM": false,
      "subId": 7210205,
      "mainId": 72102,
      "order": 5,
      "subIdSet": 0,
      "isMpBlock": false,
      "desc": "",
      "LBPMFJBNGGG": "",
      "AGIIGKJNLIG": "",
      "showType": "QUEST_HIDDEN",
      "ACEKFDIJKGJ": "BAN_GROUP_INVALID",
      "finishCond": [
        {
          "type": "QUEST_CONTENT_OBTAIN_ITEM",
          "param": [100768, 0],
          "count": 1
        }
      ],
      "failCond": [],
      "guide": {
        "type": "QUEST_GUIDE_NONE",
        "autoGuide": "QUEST_GUIDE_AUTO_NONE",
        "param": [],
        "guideScene": 0,
        "guideStyle": "QUEST_GUIDE_STYLE_NONE",
        "guideLayer": "QUEST_GUIDE_LAYER_NONE"
      },
      "showGuide": "QUEST_GUIDE_ITEM_ENABLE",
      "LPNIEFEBKGK": {
        "type": "QUEST_GUIDE_HINT_NONE",
        "param1": ""
      },
      "NKDLEHHCADL": false,
      "HKLAHKJAHJC": false,
      "failParentShow": "QUEST_SHOW",
      "EFIFPBKMMAA": true,
      "finishExec": [],
      "failExec": [],
      "LKPOHELCGKA": "",
      "PBFCIDGHHHE": ""
    },
    {
      "HDBBFJKKGOM": false,
      "subId": 7210206,
      "mainId": 72102,
      "order": 6,
      "subIdSet": 0,
      "isMpBlock": false,
      "desc": "Tìm đồ dùng cho nghi lễ",
      "LBPMFJBNGGG": "",
      "AGIIGKJNLIG": "",
      "showType": "QUEST_HIDDEN",
      "ACEKFDIJKGJ": "BAN_GROUP_INVALID",
      "finishCond": [
        {
          "type": "QUEST_CONTENT_OBTAIN_ITEM",
          "param": [100768, 0],
          "count": 1
        }
      ],
      "failCond": [],
      "guide": {
        "type": "QUEST_GUIDE_NONE",
        "autoGuide": "QUEST_GUIDE_AUTO_NONE",
        "param": [],
        "guideScene": 0,
        "guideStyle": "QUEST_GUIDE_STYLE_NONE",
        "guideLayer": "QUEST_GUIDE_LAYER_NONE"
      },
      "showGuide": "QUEST_GUIDE_ITEM_ENABLE",
      "LPNIEFEBKGK": {
        "type": "QUEST_GUIDE_HINT_NONE",
        "param1": ""
      },
      "NKDLEHHCADL": false,
      "HKLAHKJAHJC": false,
      "failParentShow": "QUEST_SHOW",
      "EFIFPBKMMAA": true,
      "finishExec": [],
      "failExec": [],
      "LKPOHELCGKA": "",
      "PBFCIDGHHHE": ""
    },
    {
      "HDBBFJKKGOM": false,
      "subId": 7210207,
      "mainId": 72102,
      "order": 7,
      "subIdSet": 0,
      "isMpBlock": false,
      "desc": "",
      "LBPMFJBNGGG": "",
      "AGIIGKJNLIG": "",
      "showType": "QUEST_HIDDEN",
      "ACEKFDIJKGJ": "BAN_GROUP_INVALID",
      "finishCond": [
        {
          "type": "QUEST_CONTENT_LUA_NOTIFY",
          "param": [0, 0],
          "count": 1
        }
      ],
      "failCond": [],
      "guide": {
        "type": "QUEST_GUIDE_NONE",
        "autoGuide": "QUEST_GUIDE_AUTO_NONE",
        "param": [],
        "guideScene": 0,
        "guideStyle": "QUEST_GUIDE_STYLE_NONE",
        "guideLayer": "QUEST_GUIDE_LAYER_NONE"
      },
      "showGuide": "QUEST_GUIDE_ITEM_ENABLE",
      "LPNIEFEBKGK": {
        "type": "QUEST_GUIDE_HINT_NONE",
        "param1": ""
      },
      "NKDLEHHCADL": true,
      "HKLAHKJAHJC": false,
      "failParentShow": "QUEST_SHOW",
      "EFIFPBKMMAA": true,
      "finishExec": [
        {
          "type": "QUEST_EXEC_SET_QUEST_GLOBAL_VAR",
          "param": ["72000", "1"]
        },
        {
          "type": "QUEST_EXEC_ADD_QUEST_PROGRESS",
          "param": ["7210204", "1"]
        }
      ],
      "failExec": [],
      "LKPOHELCGKA": "",
      "PBFCIDGHHHE": ""
    }
  ],
  "talks": [],
  "LGCLJGGNGBD": [],
  "OMKMAOLMNCO": [],
  "KPOKLMBEOBI": {},
  "MGDNNNGPOGO": 0
}
