{
  "$type": "ConfigMonster",
  "headControl": {
    "$type": "ConfigHeadControl",
    "useHeadControl": true,
    "maxYawDegree": 10,
    "maxPitchDegree": 5,
    "animStates": ["NormalIdle/Standby", "NormalMove/Walk"]
  },
  "common": {
    "scale": 1.0,
    "viewSize": 2,
    "effectAttachShape": {
      "$type": "ConfigEffectAttachSkinnedMesh",
      "mesh": "EffectMesh"
    },
    "mass": 10000.0,
    "useGrassDisplacement": true,
    "affectedByWorld": true,
    "checkInSurface": true,
    "height": 3.0,
    "modelHeight": 3.0,
    "hasAfterImage": false,
    "clearAnimatorOnSetLightDeactive": true,
    "clearAIOnSetLightDeactive": true
  },
  "model": {
    "bornEffect": "Eff_Monster_Invoker_Born"
  },
  "dither": {
    "showDitherDuration": 2.0
  },
  "move": {
    "$type": "ConfigAnimatorMove",
    "monsterSizeType": "StoopType",
    "moveOnWater": true,
    "positionModifyState": "Walk",
    "velocityForce": {
      "excludeForces": ["RetreatAirType"]
    }
  },
  "billboard": {
    "$type": "ConfigCombatBillboard",
    "offsetType": "Character",
    "offset": {
      "x": -0.5,
      "y": 0,
      "z": 0
    },
    "radiusOffset": 0,
    "showHPBar": true,
    "size": "Big",
    "showDistance": 36.0
  },
  "combat": {
    "property": {
      "endureType": "Monster_Demiboss_Humanoid",
      "weight": 150 //weightLevel = 3
    },
    "combatLock": {
      "denyLockOn": false,
      "lockType": "Avatar&Monster_Lv4"
    },
    "beHit": {
      "hitBloodEffect": "",
      "muteAllHit": false,
      "muteAllHitEffect": false,
      "muteAllHitText": false
    },
    "die": {
      "hasAnimatorDie": true,
      "dieDisappearEffect": "Eff_Death_Avatar_Common",
      "dieDisappearEffectDelay": 0,
      "dieEndTime": 2.5,
      "dieForceDisappearTime": 5,
      "dieShaderData": "AvatarDie",
      "useRagDoll": false
    },
    "animEvents": {
      "ae_hoarfrost_blast_p1": {
        "attackPattern": {
          "$type": "ConfigAttackCircle",
          "triggerType": "TriggerNoRepeat",
          "height": 2.8,
          "fanAngle": 180.0,
          "radius": 7,
          "born": {
            "$type": "ConfigBornBySelf",
            "offset": {
              "x": -0.4,
              "y": 0.0,
              "z": 0.0
            }
          }
        },
        "attackInfo": {
          "attackProperty": {
            "damagePercentage": 0.5,
            "strikeType": "Slash",
            "elementType": "Ice",
            "elementDurability": 25,
            "enBreak": 100
          },
          "hitPattern": {
            "onHitEffectName": "default",
            "hitImpulseType": "LV4",
            "hitHaltTime": 0,
            "hitHaltTimeScale": 0
          }
        }
      },
      "ae_ice_slash_p1": {
        "attackPattern": {
          "$type": "ConfigAttackCircle",
          "triggerType": "TriggerNoRepeat",
          "height": 2.8,
          "fanAngle": 180.0,
          "radius": 7,
          "born": {
            "$type": "ConfigBornBySelf",
            "offset": {
              "x": -0.4,
              "y": 0.0,
              "z": 0.0
            }
          }
        },
        "attackInfo": {
          "attackProperty": {
            "damagePercentage": 0.5,
            "strikeType": "Slash",
            "elementType": "Ice",
            "elementDurability": 25,
            "enBreak": 100
          },
          "hitPattern": {
            "onHitEffectName": "default",
            "hitImpulseType": "LV4",
            "hitHaltTime": 0,
            "hitHaltTimeScale": 0
          }
        }
      },
      "ae_ice_slash_p2": {
        "attackPattern": {
          "$type": "ConfigAttackBox",
          "triggerType": "TriggerNoRepeat",
          "size": {
            "x": 3,
            "y": 3.5,
            "z": 6
          },
          "born": {
            "$type": "ConfigBornBySelf",
            "offset": {
              "x": 0.0,
              "y": 0.5,
              "z": 0.0
            }
          }
        },
        "attackInfo": {
          "attackProperty": {
            "damagePercentage": 0.5,
            "strikeType": "Slash",
            "elementType": "Ice",
            "elementDurability": 25,
            "enBreak": 100
          },
          "hitPattern": {
            "onHitEffectName": "default",
            "hitImpulseType": "LV4",
            "hitHaltTime": 0,
            "hitHaltTimeScale": 0
          }
        }
      },
      "ae_ice_slash_p3": {
        "attackPattern": {
          "$type": "ConfigAttackCircle",
          "triggerType": "TriggerNoRepeat",
          "height": 2.8,
          "fanAngle": 180.0,
          "radius": 7,
          "born": {
            "$type": "ConfigBornBySelf",
            "offset": {
              "x": -0.4,
              "y": 0.0,
              "z": 0.0
            }
          }
        },
        "attackInfo": {
          "attackProperty": {
            "damagePercentage": 0.5,
            "strikeType": "Slash",
            "elementType": "Ice",
            "elementDurability": 25,
            "enBreak": 100
          },
          "hitPattern": {
            "onHitEffectName": "default",
            "hitImpulseType": "LV4",
            "hitHaltTime": 0,
            "hitHaltTimeScale": 0
          }
        }
      }
    }
  },
  "stateLayers": {
    "defaultLayer": {
      "$type": "ConfigNormalStateLayer",
      "stateIDs": {
        // --------------------------
        //
        //          基础状态
        //
        // --------------------------
        "NormalIdle": {
          "$type": "ConfigMonsterStateIDInfo",
          "animatorStates": {
            "Born": [],
            "Standby": []
          },
          "combatMove": true,
          "canDoSkill": true,
          "canSyncMove": true,
          "resetAnimatorTriggerOnExit": ["DoSkill"]
        },
        "NormalMove": {
          "$type": "ConfigMonsterStateIDInfo",
          "animatorStates": {
            "Walk": []
          },
          "combatMove": true,
          "canDoSkill": true,
          "canSteer": true,
          "canSyncMove": true,
          "resetAnimatorTriggerOnExit": ["DoSkill"]
        },
        "Die": {
          "$type": "ConfigMonsterStateIDInfo",
          "animatorStates": {
            "Die": [
              "Monster_Invoker_Herald_Water_Die",
              "Audio_Monster_lnvoker_Herald_Water_Die"
            ]
          },
          "enableRagDoll": false
        },
        "Disappear": {
          "$type": "ConfigMonsterStateIDInfo",
          "animatorStates": {
            "Disappear": ["Monster_Invoker_Herald_Water_Disappear"]
          },
          "enableRagDoll": false
        },
        "Alert": {
          "$type": "ConfigMonsterStateIDInfo",
          "animatorStates": {
            "Alert": [
              "Monster_Invoker_Herald_Water_Alert",
              "Audio_Monster_lnvoker_Herald_Water_AlertBS"
            ]
          },
          "combatMove": true,
          "resetAnimatorTriggerOnExit": ["BeHit", "DoSkill"]
        },
        // --------------------------
        //
        //          移动相关技能
        //
        // --------------------------
        "Approach_Precast": {
          "$type": "ConfigMonsterStateIDInfo",
          "animatorStates": {
            "Approach_Precast": []
          },
          "combatMove": true,
          "resetAnimatorTriggerOnExit": ["BeHit", "DoSkill"]
        },
        "Approach_IN": {
          "$type": "ConfigMonsterStateIDInfo",
          "animatorStates": {
            "Approach_IN": []
          },
          "canSteer": true,
          "combatMove": true,
          "resetAnimatorTriggerOnExit": ["BeHit", "DoSkill"]
        },
        "Approach_Backswing": {
          "$type": "ConfigMonsterStateIDInfo",
          "animatorStates": {
            "Approach_Backswing": []
          },
          "combatMove": true,
          "resetAnimatorTriggerOnExit": ["BeHit", "DoSkill"]
        },
        // 闪现
        "Frozen_Blink_Precast": {
          "$type": "ConfigNormalStateIDInfo",
          "animatorStates": {
            "Frozen_Blink_Precast": []
          },
          "combatMove": true,
          "resetAnimatorTriggerOnExit": ["BeHit", "DoSkill"],
          "addEndure": 0.0
        },
        "Frozen_Blink_IN": {
          "$type": "ConfigNormalStateIDInfo",
          "animatorStates": {
            "Frozen_Blink_IN": ["Monster_Invoker_Herald_Ice_Frozen_Blink_In"]
          },
          "combatMove": true,
          "resetAnimatorTriggerOnExit": ["BeHit", "DoSkill"],
          "addEndure": 0.0
        },
        "Frozen_Blink_Backswing": {
          "$type": "ConfigNormalStateIDInfo",
          "animatorStates": {
            "Frozen_Blink_Backswing": [
              "Monster_Invoker_Herald_Ice_Frozen_Blink_Backswing"
            ],
            "Frozen_Blink_Redirect": [
              "Monster_Invoker_Herald_Ice_Frozen_Blink_Backswing"
            ]
          },
          "combatMove": true,
          "resetAnimatorTriggerOnExit": ["BeHit", "DoSkill", "ReDirect"],
          "addEndure": 0.0
        },
        // --------------------------
        //
        //          攻击相关技能
        //
        // --------------------------
        "Hoarfrost_Slash": {
          "$type": "ConfigMonsterStateIDInfo",
          "animatorStates": {
            "Hoarfrost_Slash": ["Monster_Invoker_Herald_Ice_HoarfrostBlast_p1"]
          },
          "combatMove": true,
          "resetAnimatorTriggerOnExit": ["BeHit", "DoSkill"],
          "addEndure": 0.0
        },
        "Hoarfrost_Blast": {
          "$type": "ConfigMonsterStateIDInfo",
          "animatorStates": {
            "Hoarfrost_Blast": ["Monster_Invoker_Herald_Ice_HoarfrostBlast_p2"]
          },
          "combatMove": true,
          "resetAnimatorTriggerOnExit": ["BeHit", "DoSkill"],
          "addEndure": 0.0
        },
        "Frozen_Blade": {
          "$type": "ConfigMonsterStateIDInfo",
          "animatorStates": {
            "Frozen_Blade": ["Monster_Invoker_Herald_Ice_FrozenBlade"]
          },
          "combatMove": true,
          "resetAnimatorTriggerOnExit": ["BeHit", "DoSkill"],
          "addEndure": 0.0
        },
        // 普攻多段
        "IceSlash_P1": {
          "$type": "ConfigMonsterStateIDInfo",
          "animatorStates": {
            "Ice_Slash_1": ["Monster_Invoker_Herald_Ice_Slash_p1"]
          },
          "combatMove": true,
          "resetAnimatorTriggerOnExit": ["BeHit", "DoSkill"],
          "addEndure": 0.0
        },
        "IceSlash_P2": {
          "$type": "ConfigMonsterStateIDInfo",
          "animatorStates": {
            "Ice_Slash_2": ["Monster_Invoker_Herald_Ice_Slash_p2"]
          },
          "combatMove": true,
          "resetAnimatorTriggerOnExit": ["BeHit", "DoSkill"],
          "addEndure": 0.0
        },
        "IceSlash_P3": {
          "$type": "ConfigMonsterStateIDInfo",
          "animatorStates": {
            "Ice_Slash_3": ["Monster_Invoker_Herald_Ice_Slash_p3"]
          },
          "combatMove": true,
          "resetAnimatorTriggerOnExit": ["BeHit", "DoSkill"],
          "addEndure": 0.0
        },
        // 转阶段
        "Enpower_Precast": {
          "$type": "ConfigNormalStateIDInfo",
          "animatorStates": {
            "EnpowerBS": ["Monster_Invoker_Herald_Ice_EnpowerBS"]
          },
          "combatMove": true,
          "resetAnimatorTriggerOnEnter": ["BeHit", "DoSkill"],
          "resetAnimatorTriggerOnExit": ["BeHit", "DoSkill"],
          "addEndure": 0.0
        },
        "Enpower": {
          "$type": "ConfigMonsterStateIDInfo",
          "animatorStates": {
            "Enpower": ["Monster_Invoker_Herald_Ice_Enpower"]
          },
          "combatMove": true,
          "resetAnimatorTriggerOnEnter": ["BeHit"],
          "resetAnimatorTriggerOnExit": ["BeHit", "DoSkill"],
          "addEndure": 0.0
        }
      }
    }
  },
  "abilities": [
    {
      "abilityName": "Invoker_Herald_Ice_AnimatorSteer"
    },
    {
      "abilityName": "Invoker_Herald_Ice_Hoarfrost_Area"
    },
    {
      "abilityName": "Invoker_Herald_Ice_FrozenBlade_Cast_Long"
    },
    {
      "abilityName": "Invoker_Herald_Ice_FrozenBlade_Cast_Short"
    },
    {
      "abilityName": "Invoker_Herald_Ice_Special_Debuff_Monitor"
    },
    {
      "abilityName": "Invoker_Herald_Ice_Frozen_Blink_IN_State"
    },
    {
      "abilityName": "Invoker_Herald_Ice_Frozen_Blink_Redirect"
    },
    {
      "abilityName": "Invoker_Herald_Ice_FrozenBlink_Achieve"
    },
    {
      "abilityName": "Invoker_Herald_Ice_EmpowerState"
    },
    {
      "abilityName": "Invoker_Herald_Ice_StateControl"
    }
  ],
  "initialPoses": {
    "Default": {
      "initialPoseID": 101,
      "initialPoseParams": {
        "boolParams": {
          "WanderState": "false"
        }
      }
    }
  },
  "aibeta": {
    "enable": true,
    "skillGCD": 3,
    "neurons": {
      "DefaultSetting": ["HIT"],
      "NeverCombat": []
    },
    "sensing": {
      "settings": {
        "DefaultSetting": {
          "viewRange": 30.0,
          "feelRange": 15.0
        },
        "NeverCombat": {
          "enableVision": false,
          "feelRange": 0.0,
          "hearAttractionRange": 0.0
        }
      },
      "templates": {
        "DefaultTemplate": {
          "DefaultPoses": "DefaultSetting"
        },
        "NeverCombatTemplate": {
          "DefaultPoses": "NeverCombat"
        }
      }
    },
    "defendArea": {
      "enable": true,
      "defendRange": 50
      //"defendRange": 15,
    },
    "threat": {
      "clearThreatTargetDistance": 50.0,
      "clearThreatByLostPath": true,
      "clearThreatTimerByLostPath": 10,
      "resistTauntLevel": "Monster_TauntLevel_3"
    },
    "returnToBornTactic": {
      "enable": true,
      "defaultSetting": {
        "speedLevel": 0,
        "fadeoutBeginTime": 1.0,
        "fadeoutEndTime": 2.0
      }
    },
    "wanderTactic": {
      "enable": true,
      "condition": {
        "pose": [201]
      },
      "defaultSetting": {
        "speedLevel": 1,
        "cdMin": 0.0,
        "cdMax": 0.0,
        "distanceFromBorn": 15.0,
        "distanceFromCurrentMin": 7.5,
        "distanceFromCurrentMax": 10.0
      }
    },
    "meleeChargeTactic": {
      "enable": true,
      "condition": {
        "pose": [301, 302, 401, 402]
      },
      "defaultSetting": {
        "speedLevel": 1,
        "turnSpeedOverride": 0.8,
        "stopDistance": 3.0,
        "startDistanceMin": 5.0,
        "startDistanceMax": 99.0,
        "useMeleeSlot": false
      }
    },
    "skills": {
      "101": {
        "name": "OnAlert",
        "stateIDs": ["Alert"],
        "skillType": "OnAlert",
        "skillQueryingTime": 3,
        "faceTarget": true,
        "castCondition": {
          "pose": [101]
        }
      },
      "201": {
        "cd": 8.0,
        "cdUpperRange": 3.0,
        "priority": 2,
        "name": "Ice_Slash",
        "stateIDs": ["IceSlash_P1", "IceSlash_P2", "IceSlash_P3"],
        "ignoreGCD": false,
        "triggerGCD": false,
        "flagSelfOnTemplateCollider": "11",
        "castCondition": {
          "pickRangeMin": 0.0,
          "pickRangeMax": 5.0,
          "pose": [301, 302, 401, 402]
        }
      },
      "301": {
        "cd": 14.0,
        "cdUpperRange": 5.0,
        "priority": 1,
        "name": "Hoarfrost_Blast",
        "stateIDs": ["HoarfrostSlash", "HoarfrostBlast"],
        "ignoreGCD": false,
        "triggerGCD": false,
        "flagSelfOnTemplateCollider": "11",
        "castCondition": {
          "pickRangeMin": 0.0,
          "pickRangeMax": 6.0,
          "pose": [301, 302, 401, 402]
        }
      },
      "401": {
        "cd": 12.0,
        "cdUpperRange": 5.0,
        "priority": 3,
        "name": "Frozen_Blink",
        "stateIDs": [
          "Frozen_Blink_Precast",
          "Frozen_Blink_IN",
          "Frozen_Blink_Backswing"
        ],
        "ignoreGCD": true,
        "triggerGCD": false,
        "flagSelfOnTemplateCollider": "11",
        "castCondition": {
          "pickRangeMin": 0.0,
          "pickRangeMax": 3.0,
          "pose": [301, 302, 401, 402]
        }
      },
      "501": {
        "cd": 12.0,
        "cdUpperRange": 6.0,
        "priority": 1,
        "name": "Frozen_Blade",
        "stateIDs": ["Frozen_Blade"],
        "ignoreGCD": false,
        "triggerGCD": false,
        "flagSelfOnTemplateCollider": "11",
        "castCondition": {
          "pickRangeMin": 3.0,
          "pickRangeMax": 21.0,
          "pose": [301, 302, 401, 402]
        }
      },
      "601": {
        "cd": 8.0,
        "cdUpperRange": 3.0,
        "priority": 5,
        "name": "Approach",
        "stateIDs": ["Approach_Precast", "Approach_IN", "Approach_Backswing"],
        "ignoreGCD": true,
        "triggerGCD": false,
        "flagSelfOnTemplateCollider": "11",
        "castCondition": {
          "pickRangeMin": 10.0,
          "pickRangeMax": 30.0,
          "pose": [301, 302, 401, 402]
        }
      }
    }
  },
  "inputKeys": [
    {
      "keyID": 201,
      "inputKeyCode": 258
    },
    {
      "keyID": 301,
      "inputKeyCode": 259
    },
    {
      "keyID": 401,
      "inputKeyCode": 260
    },
    {
      "keyID": 501,
      "inputKeyCode": 261
    },
    {
      "keyID": 601,
      "inputKeyCode": 262
    },
    {
      "keyID": 611,
      "inputKeyCode": 263
    }
  ]
}
